[{
    "name" : "banana",
    "price" : 0.29,
    "stock" : 20,
    "updated" : "2014-01-02"
}, {
    "name" : "melon",
    "price" : 1.01,
    "stock" : 3,
    "updated" : "2014-03-28"
}, {
    "name" : "apple",
    "price" : 1.54,
    "stock" : 22,
    "updated" : "2014-02-05"
}, {
    "name" : "pear",
    "price" : 0.41,
    "stock" : 12,
    "updated" : "2014-04-19"
}, {
    "name" : "kumquat",
    "price" : 0.64,
    "stock" : 32,
    "updated" : "2014-06-10"
}, {
    "name" : "orange",
    "price" : 2.04,
    "stock" : 19,
    "updated" : "2014-05-25"
}, {
    "name" : "lemon",
    "price" : 1.56,
    "stock" : 9,
    "updated" : "2014-12-30"
}]
